{
	"info": {
		"_postman_id": "7c2fd506-5698-4347-8698-0691599849e3",
		"name": "Caselogik",
		"schema": "https://schema.getpostman.com/json/collection/v2.1.0/collection.json"
	},
	"item": [
		{
			"name": "Create Case",
			"request": {
				"method": "POST",
				"header": [
					{
						"key": "Content-Type",
						"value": "application/json;charset=UTF-8",
						"type": "text"
					}
				],
				"body": {
					"mode": "raw",
					"raw": "{\n\t\"processId\":\"simple_2\",\n\t\"workItemType\": \"sample.Payment\",\n\t\"workItemJson\": \"{\\\"key\\\":\\\"P345\\\",\\\"amount\\\":10.5,\\\"bankCode\\\": \\\"HSBC123\\\",\\\"date\\\":\\\"2019-06-17\\\"}\"\n}"
				},
				"url": {
					"raw": "{{caselogik_host}}/cases",
					"host": [
						"{{caselogik_host}}"
					],
					"path": [
						"cases"
					]
				},
				"description": "Create case"
			},
			"response": [
				{
					"name": "localhost:8080/cases",
					"originalRequest": {
						"method": "POST",
						"header": [
							{
								"key": "Content-Type",
								"value": "application/json;charset=UTF-8",
								"type": "text"
							}
						],
						"body": {
							"mode": "raw",
							"raw": ""
						},
						"url": {
							"raw": "localhost:8080/cases",
							"host": [
								"localhost"
							],
							"port": "8080",
							"path": [
								"cases"
							]
						}
					},
					"status": "Internal Server Error",
					"code": 500,
					"_postman_previewlanguage": "json",
					"header": [
						{
							"key": "Content-Type",
							"value": "application/json;charset=UTF-8"
						},
						{
							"key": "Transfer-Encoding",
							"value": "chunked"
						},
						{
							"key": "Date",
							"value": "Tue, 23 Apr 2019 10:07:50 GMT"
						},
						{
							"key": "Connection",
							"value": "close"
						}
					],
					"cookie": [],
					"body": "{\n    \"timestamp\": 1556014070528,\n    \"status\": 500,\n    \"error\": \"Internal Server Error\",\n    \"message\": \"cmd.workItem must not be null\",\n    \"path\": \"/cases\"\n}"
				}
			]
		},
		{
			"name": "Get Processes",
			"request": {
				"method": "GET",
				"header": [],
				"body": {
					"mode": "raw",
					"raw": ""
				},
				"url": {
					"raw": "{{caselogik_host}}/processes",
					"host": [
						"{{caselogik_host}}"
					],
					"path": [
						"processes"
					]
				},
				"description": "Get all loaded processes"
			},
			"response": []
		},
		{
			"name": "Get Tasks in Worklist",
			"request": {
				"method": "GET",
				"header": [],
				"body": {
					"mode": "raw",
					"raw": ""
				},
				"url": {
					"raw": "{{caselogik_host}}/worklists/nbiswas/tasks",
					"host": [
						"{{caselogik_host}}"
					],
					"path": [
						"worklists",
						"nbiswas",
						"tasks"
					]
				},
				"description": "Get tasks in worklist"
			},
			"response": []
		},
		{
			"name": "Allocate Task",
			"request": {
				"method": "POST",
				"header": [
					{
						"key": "Content-Type",
						"type": "text",
						"value": "application/json;charset=UTF-8"
					}
				],
				"body": {
					"mode": "raw",
					"raw": "{\n\t\"toWorker\": {\n\t\t\"id\": \"nbiswas\",\n\t\t\"group\": \"\",\n\t\t\"type\": \"human\"\n\t}\n}"
				},
				"url": {
					"raw": "{{caselogik_host}}/tasks/2/allocate",
					"host": [
						"{{caselogik_host}}"
					],
					"path": [
						"tasks",
						"2",
						"allocate"
					]
				},
				"description": "Allocate Task"
			},
			"response": [
				{
					"name": "localhost:8080/cases",
					"originalRequest": {
						"method": "POST",
						"header": [
							{
								"key": "Content-Type",
								"value": "application/json;charset=UTF-8",
								"type": "text"
							}
						],
						"body": {
							"mode": "raw",
							"raw": ""
						},
						"url": {
							"raw": "localhost:8080/cases",
							"host": [
								"localhost"
							],
							"port": "8080",
							"path": [
								"cases"
							]
						}
					},
					"status": "Internal Server Error",
					"code": 500,
					"_postman_previewlanguage": "json",
					"header": [
						{
							"key": "Content-Type",
							"value": "application/json;charset=UTF-8"
						},
						{
							"key": "Transfer-Encoding",
							"value": "chunked"
						},
						{
							"key": "Date",
							"value": "Tue, 23 Apr 2019 10:07:50 GMT"
						},
						{
							"key": "Connection",
							"value": "close"
						}
					],
					"cookie": [],
					"body": "{\n    \"timestamp\": 1556014070528,\n    \"status\": 500,\n    \"error\": \"Internal Server Error\",\n    \"message\": \"cmd.workItem must not be null\",\n    \"path\": \"/cases\"\n}"
				}
			]
		},
		{
			"name": "Activate Task",
			"request": {
				"method": "POST",
				"header": [
					{
						"key": "Content-Type",
						"type": "text",
						"value": "application/json;charset=UTF-8"
					}
				],
				"body": {
					"mode": "raw",
					"raw": ""
				},
				"url": {
					"raw": "{{caselogik_host}}/tasks/1/activate",
					"host": [
						"{{caselogik_host}}"
					],
					"path": [
						"tasks",
						"1",
						"activate"
					]
				}
			},
			"response": [
				{
					"name": "localhost:8080/cases",
					"originalRequest": {
						"method": "POST",
						"header": [
							{
								"key": "Content-Type",
								"value": "application/json;charset=UTF-8",
								"type": "text"
							}
						],
						"body": {
							"mode": "raw",
							"raw": ""
						},
						"url": {
							"raw": "localhost:8080/cases",
							"host": [
								"localhost"
							],
							"port": "8080",
							"path": [
								"cases"
							]
						}
					},
					"status": "Internal Server Error",
					"code": 500,
					"_postman_previewlanguage": "json",
					"header": [
						{
							"key": "Content-Type",
							"value": "application/json;charset=UTF-8"
						},
						{
							"key": "Transfer-Encoding",
							"value": "chunked"
						},
						{
							"key": "Date",
							"value": "Tue, 23 Apr 2019 10:07:50 GMT"
						},
						{
							"key": "Connection",
							"value": "close"
						}
					],
					"cookie": [],
					"body": "{\n    \"timestamp\": 1556014070528,\n    \"status\": 500,\n    \"error\": \"Internal Server Error\",\n    \"message\": \"cmd.workItem must not be null\",\n    \"path\": \"/cases\"\n}"
				}
			]
		},
		{
			"name": "Activate Task 3",
			"request": {
				"method": "POST",
				"header": [
					{
						"key": "Content-Type",
						"type": "text",
						"value": "application/json;charset=UTF-8"
					}
				],
				"body": {
					"mode": "raw",
					"raw": ""
				},
				"url": {
					"raw": "{{caselogik_host}}/tasks/3/activate",
					"host": [
						"{{caselogik_host}}"
					],
					"path": [
						"tasks",
						"3",
						"activate"
					]
				}
			},
			"response": [
				{
					"name": "localhost:8080/cases",
					"originalRequest": {
						"method": "POST",
						"header": [
							{
								"key": "Content-Type",
								"value": "application/json;charset=UTF-8",
								"type": "text"
							}
						],
						"body": {
							"mode": "raw",
							"raw": ""
						},
						"url": {
							"raw": "localhost:8080/cases",
							"host": [
								"localhost"
							],
							"port": "8080",
							"path": [
								"cases"
							]
						}
					},
					"status": "Internal Server Error",
					"code": 500,
					"_postman_previewlanguage": "json",
					"header": [
						{
							"key": "Content-Type",
							"value": "application/json;charset=UTF-8"
						},
						{
							"key": "Transfer-Encoding",
							"value": "chunked"
						},
						{
							"key": "Date",
							"value": "Tue, 23 Apr 2019 10:07:50 GMT"
						},
						{
							"key": "Connection",
							"value": "close"
						}
					],
					"cookie": [],
					"body": "{\n    \"timestamp\": 1556014070528,\n    \"status\": 500,\n    \"error\": \"Internal Server Error\",\n    \"message\": \"cmd.workItem must not be null\",\n    \"path\": \"/cases\"\n}"
				}
			]
		},
		{
			"name": "Complete Task",
			"request": {
				"method": "POST",
				"header": [
					{
						"key": "Content-Type",
						"type": "text",
						"value": "application/json;charset=UTF-8"
					}
				],
				"body": {
					"mode": "raw",
					"raw": "{\n\t\"_type\": \"completed\",\n\t\"workDataType\": \"sample.Payment\",\n\t\"workDataJson\": \"{\\\"key\\\":\\\"P345\\\",\\\"amount\\\":23.5,\\\"bankCode\\\": \\\"HSBC1234\\\",\\\"isRisky\\\":false}\"\n}"
				},
				"url": {
					"raw": "{{caselogik_host}}/tasks/1/complete",
					"host": [
						"{{caselogik_host}}"
					],
					"path": [
						"tasks",
						"1",
						"complete"
					]
				}
			},
			"response": [
				{
					"name": "localhost:8080/cases",
					"originalRequest": {
						"method": "POST",
						"header": [
							{
								"key": "Content-Type",
								"value": "application/json;charset=UTF-8",
								"type": "text"
							}
						],
						"body": {
							"mode": "raw",
							"raw": ""
						},
						"url": {
							"raw": "localhost:8080/cases",
							"host": [
								"localhost"
							],
							"port": "8080",
							"path": [
								"cases"
							]
						}
					},
					"status": "Internal Server Error",
					"code": 500,
					"_postman_previewlanguage": "json",
					"header": [
						{
							"key": "Content-Type",
							"value": "application/json;charset=UTF-8"
						},
						{
							"key": "Transfer-Encoding",
							"value": "chunked"
						},
						{
							"key": "Date",
							"value": "Tue, 23 Apr 2019 10:07:50 GMT"
						},
						{
							"key": "Connection",
							"value": "close"
						}
					],
					"cookie": [],
					"body": "{\n    \"timestamp\": 1556014070528,\n    \"status\": 500,\n    \"error\": \"Internal Server Error\",\n    \"message\": \"cmd.workItem must not be null\",\n    \"path\": \"/cases\"\n}"
				}
			]
		},
		{
			"name": "Complete Task 3",
			"request": {
				"method": "POST",
				"header": [
					{
						"key": "Content-Type",
						"type": "text",
						"value": "application/json;charset=UTF-8"
					}
				],
				"body": {
					"mode": "raw",
					"raw": "{\n\t\"_type\": \"completed\",\n\t\"workDataType\": \"sample.Payment\",\n\t\"workDataJson\": \"{\\\"key\\\":\\\"P345\\\",\\\"amount\\\":23.5,\\\"bankCode\\\": \\\"HSBC1234\\\",\\\"isRisky\\\":false}\"\n}"
				},
				"url": {
					"raw": "{{caselogik_host}}/tasks/3/complete",
					"host": [
						"{{caselogik_host}}"
					],
					"path": [
						"tasks",
						"3",
						"complete"
					]
				}
			},
			"response": [
				{
					"name": "localhost:8080/cases",
					"originalRequest": {
						"method": "POST",
						"header": [
							{
								"key": "Content-Type",
								"value": "application/json;charset=UTF-8",
								"type": "text"
							}
						],
						"body": {
							"mode": "raw",
							"raw": ""
						},
						"url": {
							"raw": "localhost:8080/cases",
							"host": [
								"localhost"
							],
							"port": "8080",
							"path": [
								"cases"
							]
						}
					},
					"status": "Internal Server Error",
					"code": 500,
					"_postman_previewlanguage": "json",
					"header": [
						{
							"key": "Content-Type",
							"value": "application/json;charset=UTF-8"
						},
						{
							"key": "Transfer-Encoding",
							"value": "chunked"
						},
						{
							"key": "Date",
							"value": "Tue, 23 Apr 2019 10:07:50 GMT"
						},
						{
							"key": "Connection",
							"value": "close"
						}
					],
					"cookie": [],
					"body": "{\n    \"timestamp\": 1556014070528,\n    \"status\": 500,\n    \"error\": \"Internal Server Error\",\n    \"message\": \"cmd.workItem must not be null\",\n    \"path\": \"/cases\"\n}"
				}
			]
		},
		{
			"name": "Get Task",
			"request": {
				"method": "GET",
				"header": [],
				"body": {
					"mode": "raw",
					"raw": ""
				},
				"url": {
					"raw": "{{caselogik_host}}/tasks/1",
					"host": [
						"{{caselogik_host}}"
					],
					"path": [
						"tasks",
						"1"
					]
				}
			},
			"response": []
		},
		{
			"name": "Deallocate Task",
			"request": {
				"method": "POST",
				"header": [],
				"body": {
					"mode": "raw",
					"raw": ""
				},
				"url": {
					"raw": "{{caselogik_host}}/tasks/1/deallocate",
					"host": [
						"{{caselogik_host}}"
					],
					"path": [
						"tasks",
						"1",
						"deallocate"
					]
				}
			},
			"response": []
		},
		{
			"name": "Change Task Priority",
			"request": {
				"method": "POST",
				"header": [
					{
						"key": "Content-Type",
						"type": "text",
						"value": "application/json;charset=UTF-8"
					}
				],
				"body": {
					"mode": "raw",
					"raw": "{\n\t\"newPriority\": 101\n}"
				},
				"url": {
					"raw": "{{caselogik_host}}/tasks/1/change-priority",
					"host": [
						"{{caselogik_host}}"
					],
					"path": [
						"tasks",
						"1",
						"change-priority"
					]
				}
			},
			"response": [
				{
					"name": "localhost:8080/cases",
					"originalRequest": {
						"method": "POST",
						"header": [
							{
								"key": "Content-Type",
								"value": "application/json;charset=UTF-8",
								"type": "text"
							}
						],
						"body": {
							"mode": "raw",
							"raw": ""
						},
						"url": {
							"raw": "localhost:8080/cases",
							"host": [
								"localhost"
							],
							"port": "8080",
							"path": [
								"cases"
							]
						}
					},
					"status": "Internal Server Error",
					"code": 500,
					"_postman_previewlanguage": "json",
					"header": [
						{
							"key": "Content-Type",
							"value": "application/json;charset=UTF-8"
						},
						{
							"key": "Transfer-Encoding",
							"value": "chunked"
						},
						{
							"key": "Date",
							"value": "Tue, 23 Apr 2019 10:07:50 GMT"
						},
						{
							"key": "Connection",
							"value": "close"
						}
					],
					"cookie": [],
					"body": "{\n    \"timestamp\": 1556014070528,\n    \"status\": 500,\n    \"error\": \"Internal Server Error\",\n    \"message\": \"cmd.workItem must not be null\",\n    \"path\": \"/cases\"\n}"
				}
			]
		}
	]
}