{
	"id": "3309ee29-17a0-4a3a-87c0-35b2940bfc45",
	"name": "caselogik-local",
	"values": [
		{
			"key": "caselogik_host",
			"value": "http://localhost:8080",
			"enabled": true
		}
	],
	"_postman_variable_scope": "environment",
	"_postman_exported_at": "2019-08-16T12:55:06.177Z",
	"_postman_exported_using": "Postman/7.0.9"
}